<?xml version="1.0" encoding="utf-8"?>
<!DOCTYPE eagle SYSTEM "eagle.dtd">
<eagle version="7.5.0">
<drawing>
<settings>
<setting alwaysvectorfont="no"/>
<setting verticaltext="up"/>
</settings>
<grid distance="50" unitdist="mil" unit="mil" style="lines" multiple="1" display="yes" altdistance="0.025" altunitdist="inch" altunit="inch"/>
<layers>
<layer number="1" name="Top" color="4" fill="1" visible="yes" active="yes"/>
<layer number="2" name="Route2" color="1" fill="3" visible="no" active="yes"/>
<layer number="3" name="Route3" color="4" fill="3" visible="no" active="yes"/>
<layer number="4" name="Route4" color="1" fill="4" visible="no" active="yes"/>
<layer number="5" name="Route5" color="4" fill="4" visible="no" active="yes"/>
<layer number="6" name="Route6" color="1" fill="8" visible="no" active="yes"/>
<layer number="7" name="Route7" color="4" fill="8" visible="no" active="yes"/>
<layer number="8" name="Route8" color="1" fill="2" visible="no" active="yes"/>
<layer number="9" name="Route9" color="4" fill="2" visible="no" active="yes"/>
<layer number="10" name="Route10" color="1" fill="7" visible="no" active="yes"/>
<layer number="11" name="Route11" color="4" fill="7" visible="no" active="yes"/>
<layer number="12" name="Route12" color="1" fill="5" visible="no" active="yes"/>
<layer number="13" name="Route13" color="4" fill="5" visible="no" active="yes"/>
<layer number="14" name="Route14" color="1" fill="6" visible="no" active="yes"/>
<layer number="15" name="Route15" color="4" fill="6" visible="no" active="yes"/>
<layer number="16" name="Bottom" color="1" fill="1" visible="yes" active="yes"/>
<layer number="17" name="Pads" color="2" fill="1" visible="yes" active="yes"/>
<layer number="18" name="Vias" color="2" fill="1" visible="yes" active="yes"/>
<layer number="19" name="Unrouted" color="6" fill="1" visible="yes" active="yes"/>
<layer number="20" name="Dimension" color="15" fill="1" visible="yes" active="yes"/>
<layer number="21" name="tPlace" color="7" fill="1" visible="yes" active="yes"/>
<layer number="22" name="bPlace" color="7" fill="1" visible="yes" active="yes"/>
<layer number="23" name="tOrigins" color="15" fill="1" visible="yes" active="yes"/>
<layer number="24" name="bOrigins" color="15" fill="1" visible="yes" active="yes"/>
<layer number="25" name="tNames" color="7" fill="1" visible="yes" active="yes"/>
<layer number="26" name="bNames" color="7" fill="1" visible="yes" active="yes"/>
<layer number="27" name="tValues" color="7" fill="1" visible="yes" active="yes"/>
<layer number="28" name="bValues" color="7" fill="1" visible="yes" active="yes"/>
<layer number="29" name="tStop" color="7" fill="3" visible="yes" active="yes"/>
<layer number="30" name="bStop" color="7" fill="6" visible="yes" active="yes"/>
<layer number="31" name="tCream" color="7" fill="4" visible="yes" active="yes"/>
<layer number="32" name="bCream" color="7" fill="5" visible="yes" active="yes"/>
<layer number="33" name="tFinish" color="6" fill="3" visible="yes" active="yes"/>
<layer number="34" name="bFinish" color="6" fill="6" visible="no" active="yes"/>
<layer number="35" name="tGlue" color="7" fill="4" visible="no" active="yes"/>
<layer number="36" name="bGlue" color="7" fill="5" visible="no" active="yes"/>
<layer number="37" name="tTest" color="7" fill="1" visible="no" active="yes"/>
<layer number="38" name="bTest" color="7" fill="1" visible="no" active="yes"/>
<layer number="39" name="tKeepout" color="4" fill="11" visible="yes" active="yes"/>
<layer number="40" name="bKeepout" color="1" fill="11" visible="yes" active="yes"/>
<layer number="41" name="tRestrict" color="4" fill="10" visible="yes" active="yes"/>
<layer number="42" name="bRestrict" color="1" fill="10" visible="yes" active="yes"/>
<layer number="43" name="vRestrict" color="2" fill="10" visible="yes" active="yes"/>
<layer number="44" name="Drills" color="7" fill="1" visible="no" active="yes"/>
<layer number="45" name="Holes" color="7" fill="1" visible="yes" active="yes"/>
<layer number="46" name="Milling" color="3" fill="1" visible="no" active="yes"/>
<layer number="47" name="Measures" color="7" fill="1" visible="yes" active="yes"/>
<layer number="48" name="Document" color="7" fill="1" visible="yes" active="yes"/>
<layer number="49" name="Reference" color="7" fill="1" visible="yes" active="yes"/>
<layer number="50" name="dxf" color="7" fill="1" visible="no" active="no"/>
<layer number="51" name="tDocu" color="14" fill="1" visible="no" active="yes"/>
<layer number="52" name="bDocu" color="7" fill="1" visible="yes" active="yes"/>
<layer number="53" name="tGND_GNDA" color="7" fill="9" visible="no" active="no"/>
<layer number="54" name="bGND_GNDA" color="1" fill="9" visible="no" active="no"/>
<layer number="56" name="wert" color="7" fill="1" visible="no" active="no"/>
<layer number="57" name="tCAD" color="7" fill="1" visible="no" active="no"/>
<layer number="59" name="Invisible" color="7" fill="1" visible="no" active="no"/>
<layer number="60" name="bCarbon" color="7" fill="1" visible="no" active="no"/>
<layer number="61" name="stand" color="7" fill="1" visible="no" active="no"/>
<layer number="90" name="Modules" color="5" fill="1" visible="no" active="no"/>
<layer number="91" name="Nets" color="2" fill="1" visible="yes" active="yes"/>
<layer number="92" name="Busses" color="1" fill="1" visible="yes" active="yes"/>
<layer number="93" name="Pins" color="2" fill="1" visible="yes" active="yes"/>
<layer number="94" name="Symbols" color="4" fill="1" visible="yes" active="yes"/>
<layer number="95" name="Names" color="7" fill="1" visible="yes" active="yes"/>
<layer number="96" name="Values" color="7" fill="1" visible="yes" active="yes"/>
<layer number="97" name="Info" color="7" fill="1" visible="yes" active="yes"/>
<layer number="98" name="Guide" color="6" fill="1" visible="yes" active="yes"/>
<layer number="99" name="SpiceOrder" color="7" fill="1" visible="no" active="no"/>
<layer number="100" name="Muster" color="7" fill="1" visible="no" active="no"/>
<layer number="101" name="Patch_Top" color="12" fill="4" visible="yes" active="yes"/>
<layer number="102" name="Vscore" color="7" fill="1" visible="yes" active="yes"/>
<layer number="103" name="tMap" color="7" fill="1" visible="yes" active="yes"/>
<layer number="104" name="Name" color="7" fill="1" visible="yes" active="yes"/>
<layer number="105" name="tPlate" color="7" fill="1" visible="yes" active="yes"/>
<layer number="106" name="bPlate" color="7" fill="1" visible="yes" active="yes"/>
<layer number="107" name="Crop" color="7" fill="1" visible="yes" active="yes"/>
<layer number="108" name="fp8" color="7" fill="1" visible="yes" active="yes"/>
<layer number="109" name="fp9" color="7" fill="1" visible="yes" active="yes"/>
<layer number="110" name="fp0" color="7" fill="1" visible="yes" active="yes"/>
<layer number="111" name="LPC17xx" color="7" fill="1" visible="yes" active="yes"/>
<layer number="112" name="tSilk" color="7" fill="1" visible="yes" active="yes"/>
<layer number="113" name="IDFDebug" color="7" fill="1" visible="yes" active="yes"/>
<layer number="116" name="Patch_BOT" color="9" fill="4" visible="yes" active="yes"/>
<layer number="118" name="Rect_Pads" color="7" fill="1" visible="yes" active="yes"/>
<layer number="121" name="_tsilk" color="7" fill="1" visible="yes" active="yes"/>
<layer number="122" name="_bsilk" color="7" fill="1" visible="yes" active="yes"/>
<layer number="123" name="tTestmark" color="7" fill="1" visible="yes" active="yes"/>
<layer number="124" name="bTestmark" color="7" fill="1" visible="yes" active="yes"/>
<layer number="125" name="_tNames" color="7" fill="1" visible="no" active="yes"/>
<layer number="126" name="_bNames" color="7" fill="1" visible="yes" active="yes"/>
<layer number="127" name="_tValues" color="7" fill="1" visible="yes" active="yes"/>
<layer number="128" name="_bValues" color="7" fill="1" visible="yes" active="yes"/>
<layer number="129" name="Mask" color="7" fill="1" visible="yes" active="yes"/>
<layer number="130" name="bLogo" color="7" fill="1" visible="yes" active="yes"/>
<layer number="131" name="tAdjust" color="7" fill="1" visible="yes" active="yes"/>
<layer number="132" name="bAdjust" color="7" fill="1" visible="yes" active="yes"/>
<layer number="144" name="Drill_legend" color="7" fill="1" visible="yes" active="yes"/>
<layer number="150" name="Notes" color="7" fill="1" visible="yes" active="yes"/>
<layer number="151" name="HeatSink" color="7" fill="1" visible="yes" active="yes"/>
<layer number="152" name="_bDocu" color="7" fill="1" visible="yes" active="yes"/>
<layer number="153" name="FabDoc1" color="7" fill="1" visible="yes" active="yes"/>
<layer number="154" name="FabDoc2" color="7" fill="1" visible="yes" active="yes"/>
<layer number="155" name="FabDoc3" color="7" fill="1" visible="yes" active="yes"/>
<layer number="199" name="Contour" color="7" fill="1" visible="yes" active="yes"/>
<layer number="200" name="200bmp" color="1" fill="10" visible="yes" active="yes"/>
<layer number="201" name="201bmp" color="2" fill="10" visible="yes" active="yes"/>
<layer number="202" name="202bmp" color="3" fill="10" visible="yes" active="yes"/>
<layer number="203" name="203bmp" color="4" fill="10" visible="yes" active="yes"/>
<layer number="204" name="204bmp" color="5" fill="10" visible="yes" active="yes"/>
<layer number="205" name="205bmp" color="6" fill="10" visible="yes" active="yes"/>
<layer number="206" name="206bmp" color="7" fill="10" visible="yes" active="yes"/>
<layer number="207" name="207bmp" color="8" fill="10" visible="yes" active="yes"/>
<layer number="208" name="208bmp" color="9" fill="10" visible="yes" active="yes"/>
<layer number="209" name="209bmp" color="7" fill="1" visible="yes" active="yes"/>
<layer number="210" name="210bmp" color="7" fill="1" visible="yes" active="yes"/>
<layer number="211" name="211bmp" color="7" fill="1" visible="yes" active="yes"/>
<layer number="212" name="212bmp" color="7" fill="1" visible="yes" active="yes"/>
<layer number="213" name="213bmp" color="7" fill="1" visible="yes" active="yes"/>
<layer number="214" name="214bmp" color="7" fill="1" visible="yes" active="yes"/>
<layer number="215" name="215bmp" color="7" fill="1" visible="yes" active="yes"/>
<layer number="216" name="216bmp" color="7" fill="1" visible="yes" active="yes"/>
<layer number="217" name="217bmp" color="18" fill="1" visible="no" active="no"/>
<layer number="218" name="218bmp" color="19" fill="1" visible="no" active="no"/>
<layer number="219" name="219bmp" color="20" fill="1" visible="no" active="no"/>
<layer number="220" name="220bmp" color="21" fill="1" visible="no" active="no"/>
<layer number="221" name="221bmp" color="22" fill="1" visible="no" active="no"/>
<layer number="222" name="222bmp" color="23" fill="1" visible="no" active="no"/>
<layer number="223" name="223bmp" color="24" fill="1" visible="no" active="no"/>
<layer number="224" name="224bmp" color="25" fill="1" visible="no" active="no"/>
<layer number="225" name="225bmp" color="7" fill="1" visible="yes" active="yes"/>
<layer number="226" name="226bmp" color="7" fill="1" visible="yes" active="yes"/>
<layer number="227" name="227bmp" color="7" fill="1" visible="yes" active="yes"/>
<layer number="228" name="228bmp" color="7" fill="1" visible="yes" active="yes"/>
<layer number="229" name="229bmp" color="7" fill="1" visible="yes" active="yes"/>
<layer number="230" name="230bmp" color="7" fill="1" visible="yes" active="yes"/>
<layer number="231" name="Eagle3D_PG1" color="14" fill="1" visible="yes" active="yes"/>
<layer number="232" name="Eagle3D_PG2" color="14" fill="2" visible="yes" active="yes"/>
<layer number="233" name="Eagle3D_PG3" color="14" fill="4" visible="yes" active="yes"/>
<layer number="248" name="Housing" color="7" fill="1" visible="yes" active="yes"/>
<layer number="249" name="Edge" color="7" fill="1" visible="yes" active="yes"/>
<layer number="250" name="Descript" color="3" fill="1" visible="no" active="no"/>
<layer number="251" name="SMDround" color="12" fill="11" visible="no" active="no"/>
<layer number="254" name="cooling" color="7" fill="1" visible="yes" active="yes"/>
<layer number="255" name="routoute" color="7" fill="1" visible="yes" active="yes"/>
</layers>
<library>
<packages>
<package name="UMAX10">
<smd name="8" x="0" y="2.17" dx="1.4" dy="0.28" layer="1" rot="R90"/>
<smd name="9" x="-0.5" y="2.17" dx="1.4" dy="0.28" layer="1" rot="R90"/>
<smd name="10" x="-1" y="2.17" dx="1.4" dy="0.28" layer="1" rot="R90"/>
<smd name="7" x="0.5" y="2.17" dx="1.4" dy="0.28" layer="1" rot="R90"/>
<smd name="6" x="1" y="2.17" dx="1.4" dy="0.28" layer="1" rot="R90"/>
<smd name="1" x="-1" y="-2.17" dx="1.4" dy="0.28" layer="1" rot="R90"/>
<smd name="2" x="-0.5" y="-2.17" dx="1.4" dy="0.28" layer="1" rot="R90"/>
<smd name="3" x="0" y="-2.17" dx="1.4" dy="0.28" layer="1" rot="R90"/>
<smd name="4" x="0.5" y="-2.17" dx="1.4" dy="0.28" layer="1" rot="R90"/>
<smd name="5" x="1" y="-2.17" dx="1.4" dy="0.28" layer="1" rot="R90"/>
<wire x1="-1.45" y1="1.45" x2="1.45" y2="1.45" width="0.1524" layer="51"/>
<wire x1="1.45" y1="1.45" x2="1.45" y2="-1.45" width="0.1524" layer="21"/>
<wire x1="1.45" y1="-1.45" x2="-1.45" y2="-1.45" width="0.1524" layer="51"/>
<wire x1="-1.45" y1="-1.45" x2="-1.45" y2="1.45" width="0.1524" layer="21"/>
<text x="-1.61" y="0.02" size="1.016" layer="21" font="vector" ratio="12" rot="R90" align="bottom-center">&gt;NAME</text>
<circle x="-1.77" y="-1.72" radius="0.1523125" width="0" layer="21"/>
<text x="1.778" y="0" size="1.016" layer="27" font="vector" ratio="12" distance="0" rot="R90" align="top-center">&gt;VALUE</text>
</package>
</packages>
<symbols>
<symbol name="MAX9939-A">
<wire x1="-7.62" y1="15.24" x2="-7.62" y2="-15.24" width="0.254" layer="94"/>
<wire x1="-7.62" y1="-15.24" x2="17.78" y2="0" width="0.254" layer="94"/>
<wire x1="17.78" y1="0" x2="-7.62" y2="15.24" width="0.254" layer="94"/>
<pin name="SCLK" x="-12.7" y="-5.08" length="middle" direction="in"/>
<pin name="DIN" x="-12.7" y="-7.62" length="middle" direction="in"/>
<pin name="GND" x="5.08" y="-15.24" direction="pwr" rot="R90"/>
<pin name="INA-" x="-12.7" y="5.08" length="middle" direction="pas"/>
<pin name="INA+" x="-12.7" y="7.62" length="middle" direction="pas"/>
<pin name="OUTA" x="22.86" y="0" length="middle" direction="pas" rot="R180"/>
<pin name="VCC" x="5.08" y="15.24" direction="pwr" rot="R270"/>
<pin name="!CS" x="-12.7" y="-2.54" length="middle" direction="in"/>
<text x="10.16" y="5.588" size="1.778" layer="95">&gt;NAME</text>
<text x="10.16" y="-7.112" size="1.27" layer="96">&gt;VALUE</text>
</symbol>
<symbol name="MAX9939-B">
<wire x1="7.62" y1="0" x2="-5.08" y2="7.62" width="0.254" layer="94"/>
<wire x1="-5.08" y1="7.62" x2="-5.08" y2="-7.62" width="0.254" layer="94"/>
<wire x1="-5.08" y1="-7.62" x2="7.62" y2="0" width="0.254" layer="94"/>
<pin name="IN-" x="-10.16" y="-2.54" length="middle" direction="pas"/>
<pin name="OUT" x="12.7" y="0" length="middle" direction="pas" rot="R180"/>
<wire x1="-3.302" y1="5.334" x2="-3.302" y2="4.572" width="0.127" layer="94"/>
<wire x1="-3.302" y1="4.572" x2="-3.556" y2="4.572" width="0.127" layer="94"/>
<wire x1="-3.556" y1="4.572" x2="-3.556" y2="3.556" width="0.127" layer="94"/>
<wire x1="-3.556" y1="3.556" x2="-3.302" y2="3.556" width="0.127" layer="94"/>
<wire x1="-3.302" y1="3.556" x2="-3.048" y2="3.556" width="0.127" layer="94"/>
<wire x1="-3.048" y1="3.556" x2="-3.048" y2="4.572" width="0.127" layer="94"/>
<wire x1="-3.048" y1="4.572" x2="-3.302" y2="4.572" width="0.127" layer="94"/>
<wire x1="-3.302" y1="3.556" x2="-3.302" y2="3.048" width="0.127" layer="94"/>
<wire x1="-3.302" y1="3.048" x2="-1.778" y2="3.048" width="0.127" layer="94"/>
<wire x1="-3.302" y1="3.048" x2="-3.302" y2="2.54" width="0.127" layer="94"/>
<wire x1="-3.302" y1="2.54" x2="-3.556" y2="2.54" width="0.127" layer="94"/>
<wire x1="-3.556" y1="2.54" x2="-3.556" y2="1.524" width="0.127" layer="94"/>
<wire x1="-3.556" y1="1.524" x2="-3.302" y2="1.524" width="0.127" layer="94"/>
<wire x1="-3.302" y1="1.524" x2="-3.048" y2="1.524" width="0.127" layer="94"/>
<wire x1="-3.048" y1="1.524" x2="-3.048" y2="2.54" width="0.127" layer="94"/>
<wire x1="-3.048" y1="2.54" x2="-3.302" y2="2.54" width="0.127" layer="94"/>
<wire x1="-3.302" y1="1.524" x2="-3.302" y2="0.762" width="0.127" layer="94"/>
<wire x1="-2.54" y1="3.81" x2="-2.032" y2="3.81" width="0.127" layer="94"/>
<wire x1="-2.286" y1="4.064" x2="-2.286" y2="3.556" width="0.127" layer="94"/>
<text x="-5.08" y="8.128" size="1.778" layer="95">&gt;NAME</text>
<text x="-5.08" y="-9.652" size="1.778" layer="96">&gt;VALUE</text>
</symbol>
</symbols>
<devicesets>
<deviceset name="MAX9939" prefix="IC">
<description>SPI programmable differential amplifier</description>
<gates>
<gate name="A" symbol="MAX9939-A" x="0" y="0"/>
<gate name="B" symbol="MAX9939-B" x="38.1" y="35.56"/>
</gates>
<devices>
<device name="" package="UMAX10">
<connects>
<connect gate="A" pin="!CS" pad="10"/>
<connect gate="A" pin="DIN" pad="2"/>
<connect gate="A" pin="GND" pad="3"/>
<connect gate="A" pin="INA+" pad="5"/>
<connect gate="A" pin="INA-" pad="4"/>
<connect gate="A" pin="OUTA" pad="8"/>
<connect gate="A" pin="SCLK" pad="1"/>
<connect gate="A" pin="VCC" pad="9"/>
<connect gate="B" pin="IN-" pad="7"/>
<connect gate="B" pin="OUT" pad="6"/>
</connects>
<technologies>
<technology name=""/>
</technologies>
</device>
</devices>
</deviceset>
</devicesets>
</library>
</drawing>
</eagle>
