<?xml version="1.0" encoding="utf-8"?>
<!DOCTYPE eagle SYSTEM "eagle.dtd">
<eagle version="7.5.0">
<drawing>
<settings>
<setting alwaysvectorfont="no"/>
<setting verticaltext="up"/>
</settings>
<grid distance="0.1" unitdist="inch" unit="inch" style="lines" multiple="1" display="yes" altdistance="0.01" altunitdist="inch" altunit="inch"/>
<layers>
<layer number="1" name="Top" color="4" fill="1" visible="yes" active="yes"/>
<layer number="16" name="Bottom" color="1" fill="1" visible="yes" active="yes"/>
<layer number="17" name="Pads" color="2" fill="1" visible="yes" active="yes"/>
<layer number="18" name="Vias" color="2" fill="1" visible="yes" active="yes"/>
<layer number="19" name="Unrouted" color="6" fill="1" visible="yes" active="yes"/>
<layer number="20" name="Dimension" color="15" fill="1" visible="yes" active="yes"/>
<layer number="21" name="tPlace" color="7" fill="1" visible="yes" active="yes"/>
<layer number="22" name="bPlace" color="7" fill="1" visible="yes" active="yes"/>
<layer number="23" name="tOrigins" color="15" fill="1" visible="yes" active="yes"/>
<layer number="24" name="bOrigins" color="15" fill="1" visible="yes" active="yes"/>
<layer number="25" name="tNames" color="7" fill="1" visible="yes" active="yes"/>
<layer number="26" name="bNames" color="7" fill="1" visible="yes" active="yes"/>
<layer number="27" name="tValues" color="7" fill="1" visible="yes" active="yes"/>
<layer number="28" name="bValues" color="7" fill="1" visible="yes" active="yes"/>
<layer number="29" name="tStop" color="7" fill="3" visible="yes" active="yes"/>
<layer number="30" name="bStop" color="7" fill="6" visible="no" active="yes"/>
<layer number="31" name="tCream" color="7" fill="4" visible="no" active="yes"/>
<layer number="32" name="bCream" color="7" fill="5" visible="no" active="yes"/>
<layer number="33" name="tFinish" color="6" fill="3" visible="no" active="yes"/>
<layer number="34" name="bFinish" color="6" fill="6" visible="no" active="yes"/>
<layer number="35" name="tGlue" color="7" fill="4" visible="no" active="yes"/>
<layer number="36" name="bGlue" color="7" fill="5" visible="no" active="yes"/>
<layer number="37" name="tTest" color="7" fill="1" visible="no" active="yes"/>
<layer number="38" name="bTest" color="7" fill="1" visible="no" active="yes"/>
<layer number="39" name="tKeepout" color="4" fill="11" visible="yes" active="yes"/>
<layer number="40" name="bKeepout" color="1" fill="11" visible="yes" active="yes"/>
<layer number="41" name="tRestrict" color="4" fill="10" visible="yes" active="yes"/>
<layer number="42" name="bRestrict" color="1" fill="10" visible="yes" active="yes"/>
<layer number="43" name="vRestrict" color="2" fill="10" visible="yes" active="yes"/>
<layer number="44" name="Drills" color="7" fill="1" visible="no" active="yes"/>
<layer number="45" name="Holes" color="7" fill="1" visible="no" active="yes"/>
<layer number="46" name="Milling" color="3" fill="1" visible="no" active="yes"/>
<layer number="47" name="Measures" color="7" fill="1" visible="no" active="yes"/>
<layer number="48" name="Document" color="7" fill="1" visible="yes" active="yes"/>
<layer number="49" name="Reference" color="7" fill="1" visible="yes" active="yes"/>
<layer number="51" name="tDocu" color="7" fill="1" visible="yes" active="yes"/>
<layer number="52" name="bDocu" color="7" fill="1" visible="yes" active="yes"/>
<layer number="90" name="Modules" color="5" fill="1" visible="yes" active="yes"/>
<layer number="91" name="Nets" color="2" fill="1" visible="yes" active="yes"/>
<layer number="92" name="Busses" color="1" fill="1" visible="yes" active="yes"/>
<layer number="93" name="Pins" color="2" fill="1" visible="yes" active="yes"/>
<layer number="94" name="Symbols" color="4" fill="1" visible="yes" active="yes"/>
<layer number="95" name="Names" color="7" fill="1" visible="yes" active="yes"/>
<layer number="96" name="Values" color="7" fill="1" visible="yes" active="yes"/>
<layer number="97" name="Info" color="7" fill="1" visible="yes" active="yes"/>
<layer number="98" name="Guide" color="6" fill="1" visible="yes" active="yes"/>
</layers>
<library>
<packages>
<package name="SOT23-6">
<smd name="3" x="-1.35" y="-1" dx="1" dy="0.55" layer="1" rot="R180"/>
<smd name="2" x="-1.35" y="-0.05" dx="1" dy="0.55" layer="1" rot="R180"/>
<smd name="1" x="-1.35" y="0.9" dx="1" dy="0.55" layer="1" rot="R180"/>
<smd name="4" x="1.35" y="-1" dx="1" dy="0.55" layer="1" rot="R180"/>
<smd name="5" x="1.35" y="-0.05" dx="1" dy="0.55" layer="1" rot="R180"/>
<smd name="6" x="1.35" y="0.9" dx="1" dy="0.55" layer="1" rot="R180"/>
<text x="-1.985" y="2.175" size="1.27" layer="25">&gt;NAME</text>
<text x="-1.985" y="-3.54" size="1.27" layer="27">&gt;VALUE</text>
<wire x1="-0.85" y1="-1.5" x2="0.85" y2="-1.5" width="0.127" layer="51"/>
<wire x1="-0.85" y1="-1.5" x2="-0.85" y2="1.5" width="0.127" layer="51"/>
<wire x1="-0.85" y1="1.5" x2="0.85" y2="1.5" width="0.127" layer="51"/>
<wire x1="0.85" y1="-1.5" x2="0.85" y2="1.5" width="0.127" layer="51"/>
<rectangle x1="-1.65" y1="0.7" x2="-0.85" y2="1.1" layer="51"/>
<rectangle x1="-1.65" y1="-0.25" x2="-0.85" y2="0.15" layer="51"/>
<rectangle x1="-1.65" y1="-1.2" x2="-0.85" y2="-0.8" layer="51"/>
<rectangle x1="0.85" y1="0.7" x2="1.65" y2="1.1" layer="51"/>
<rectangle x1="0.85" y1="-0.25" x2="1.65" y2="0.15" layer="51"/>
<rectangle x1="0.85" y1="-1.2" x2="1.65" y2="-0.8" layer="51"/>
<wire x1="-0.85" y1="1.5" x2="0.85" y2="1.5" width="0.127" layer="21"/>
<wire x1="-0.85" y1="-1.5" x2="0.85" y2="-1.5" width="0.127" layer="21"/>
<circle x="-2.3025" y="0.90625" radius="0.0508" width="0.4064" layer="21"/>
</package>
</packages>
<symbols>
<symbol name="TLV61046A">
<wire x1="-10.16" y1="7.62" x2="-10.16" y2="-7.62" width="0.254" layer="94"/>
<wire x1="-10.16" y1="-7.62" x2="10.16" y2="-7.62" width="0.254" layer="94"/>
<wire x1="10.16" y1="-7.62" x2="10.16" y2="7.62" width="0.254" layer="94"/>
<wire x1="10.16" y1="7.62" x2="-10.16" y2="7.62" width="0.254" layer="94"/>
<pin name="SW" x="12.7" y="5.08" length="short" direction="oc" rot="R180"/>
<pin name="GND" x="-12.7" y="0" length="short" direction="pwr"/>
<pin name="FB" x="12.7" y="-5.08" length="short" rot="R180"/>
<pin name="EN" x="-12.7" y="-5.08" length="short" direction="in"/>
<pin name="VOUT" x="12.7" y="0" length="short" direction="pwr" rot="R180"/>
<pin name="VIN" x="-12.7" y="5.08" length="short" direction="pwr"/>
<text x="-10.16" y="8.636" size="1.27" layer="95">&gt;NAME</text>
<text x="-10.16" y="-10.16" size="1.27" layer="96">&gt;VALUE</text>
</symbol>
</symbols>
<devicesets>
<deviceset name="TLV61046A" prefix="IC">
<gates>
<gate name="G$1" symbol="TLV61046A" x="0" y="0"/>
</gates>
<devices>
<device name="" package="SOT23-6">
<connects>
<connect gate="G$1" pin="EN" pad="4"/>
<connect gate="G$1" pin="FB" pad="3"/>
<connect gate="G$1" pin="GND" pad="2"/>
<connect gate="G$1" pin="SW" pad="1"/>
<connect gate="G$1" pin="VIN" pad="6"/>
<connect gate="G$1" pin="VOUT" pad="5"/>
</connects>
<technologies>
<technology name=""/>
</technologies>
</device>
</devices>
</deviceset>
</devicesets>
</library>
</drawing>
</eagle>
